<svg xmlns="http://www.w3.org/2000/svg" viewBox="0 0 24 24">
    <g>
        <path fill="none" d="M0 0h24v24H0z"/>
        <path fill="#ffffff" d="M20 3v14a4 4 0 1 1-2-3.465V6H9v11a4 4 0 1 1-2-3.465V3h13z"/>
    </g>
</svg>
