<svg xmlns="http://www.w3.org/2000/svg" width="48" height="48" viewBox="0 0 48 48">
    <path fill="#ffffff" d="M8 36l17-12L8 12v24zm18-24v24l17-12-17-12z"/>
    <path d="M0 0h48v48H0z" fill="none"/>
</svg>
