<svg xmlns="http://www.w3.org/2000/svg" width="18" height="18" viewBox="0 0 18 18">
    <path fill="#cfcfcf" d="M2 16h14v-2H2v2zm0-4h14v-2H2v2zM2 2v2h14V2H2zm0 6h14V6H2v2z"/>
    <path fill="none" d="M0 0h18v18H0z"/>
</svg>
