<svg xmlns="http://www.w3.org/2000/svg" width="18" height="18" viewBox="0 0 18 18">
    <path fill="#cfcfcf" d="M9 13c2.76 0 5-2.24 5-5V1h-2.5v7c0 1.38-1.12 2.5-2.5 2.5S6.5 9.38 6.5 8V1H4v7c0 2.76 2.24 5 5 5zm-6 2v2h12v-2H3z"/>
    <path d="M0 0h18v18H0z" fill="none"/>
</svg>
