<svg xmlns="http://www.w3.org/2000/svg" width="48" height="48" viewBox="0 0 48 48">
  <path
     d="M0 0h48v48H0z"
     fill="none" />
  <path
     d="M 43.562991,16.007292 H 38.767366 C 37.968095,13.60948 35.770101,12.010939 33.172471,12.010939 H 21.18341 c 0,-2.197995 -1.79836,-3.996354 -3.996354,-3.996354 H 8.9945305 c -3.3969006,0 -5.9945306,2.59763 -5.9945306,5.994531 v 19.981768 c 0,3.396901 2.59763,5.994531 5.9945306,5.994531 H 32.972653 c 3.396901,0 6.793801,-2.59763 7.593072,-5.994531 l 4.39599,-15.985415 C 45.161532,16.806563 44.56208,16.007292 43.562991,16.007292 Z M 6.9963536,18.005469 v -3.996353 c 0,-1.198906 0.7992709,-1.998177 1.9981769,-1.998177 h 7.9927075 c 0,2.197994 1.798359,3.996353 3.996353,3.996353 h 11.989062 c 1.198906,0 1.998177,0.799271 1.998177,1.998177 H 12.791066 c -1.198906,0 -2.197994,0.799271 -2.597629,1.998177 L 6.9963536,32.59216 Z"
     style="fill:#ffffff" />
</svg>
