<svg xmlns="http://www.w3.org/2000/svg" viewBox="0 0 24 24">
    <g>
        <path fill="none" d="M0 0h24v24H0z"/>
        <path fill="#cfcfcf" d="M1.584 13.007a8 8 0 0 1 14.873-5.908 5.5 5.5 0 0 1 6.52 5.908H1.584zM4 19h17v2H4v-2zm-2-4h21v2H2v-2z"/>
    </g>
</svg>
