<svg xmlns="http://www.w3.org/2000/svg" viewBox="0 0 24 24">
    <g>
        <path fill="none" d="M0 0H24V24H0z"/>
        <path fill="#cfcfcf" d="M5 3v16h16v2H3V3h2zm14.94 2.94l2.12 2.12L16 14.122l-3-3-3.94 3.94-2.12-2.122L13 6.88l3 3 3.94-3.94z"/>
    </g>
</svg>
