<svg xmlns="http://www.w3.org/2000/svg" viewBox="0 0 24 24">
    <g>
        <path fill="none" d="M0 0h24v24H0z"/>
        <path fill="#cfcfcf" d="M11 18v3H9v-3a8 8 0 1 1 7.458-10.901A5.5 5.5 0 1 1 17.5 18H11zm2 2h2v3h-2v-3z"/>
    </g>
</svg>
