<svg xmlns="http://www.w3.org/2000/svg" viewBox="0 0 24 24">
    <g>
        <path fill="none" d="M0 0h24v24H0z"/>
        <path fill="#ffffff" d="M12 13.535V3h8v3h-6v11a4 4 0 1 1-2-3.465z"/>
    </g>
</svg>
