<?xml version="1.0" encoding="utf-8"?>
<!-- Generator: Adobe Illustrator 19.2.1, SVG Export Plug-In . SVG Version: 6.00 Build 0)  -->
<svg version="1.1" id="Layer_1" xmlns="http://www.w3.org/2000/svg" xmlns:xlink="http://www.w3.org/1999/xlink" x="0px" y="0px"
	 width="92px" height="92px" viewBox="0 0 92 92" enable-background="new 0 0 92 92" xml:space="preserve">
<path fill="white" id="XMLID_610_" d="M46,84.5C24.8,84.5,7.5,67.2,7.5,46C7.5,24.8,24.8,7.5,46,7.5c21.2,0,38.5,17.3,38.5,38.5
	C84.5,67.2,67.2,84.5,46,84.5z M46,16.5c-16.3,0-29.5,13.2-29.5,29.5c0,16.3,13.2,29.5,29.5,29.5c16.3,0,29.5-13.2,29.5-29.5
	C75.5,29.7,62.3,16.5,46,16.5z"/>
</svg>
