<svg xmlns="http://www.w3.org/2000/svg" width="48" height="48" viewBox="0 0 48 48">
    <path fill="#ffffff" d="M37 24c0-3.53-2.04-6.58-5-8.05v16.11c2.96-1.48 5-4.53 5-8.06zm-27-6v12h8l10 10V8L18 18h-8z"/>
    <path d="M0 0h48v48H0z" fill="none"/>
</svg>
