<?xml version="1.0" encoding="utf-8"?>
<!-- Generator: Adobe Illustrator 19.2.1, SVG Export Plug-In . SVG Version: 6.00 Build 0)  -->
<svg version="1.1" id="Layer_1" xmlns="http://www.w3.org/2000/svg" xmlns:xlink="http://www.w3.org/1999/xlink" x="0px" y="0px"
	 width="92px" height="92px" viewBox="0 0 92 92" enable-background="new 0 0 92 92" xml:space="preserve">
<path fill="white" id="XMLID_688_" d="M84,12.5C84,10,82,8,79.5,8h-68C9,8,7,10,7,12.5v68C7,83,9,85,11.5,85h68c2.5,0,4.5-2,4.5-4.5V12.5z M75,76
	H16V17h59V76z"/>
</svg>
