<?xml version="1.0" encoding="utf-8"?>
<!-- Generator: Adobe Illustrator 19.2.1, SVG Export Plug-In . SVG Version: 6.00 Build 0)  -->
<svg version="1.1" id="Layer_1" xmlns="http://www.w3.org/2000/svg" xmlns:xlink="http://www.w3.org/1999/xlink" x="0px" y="0px"
	 width="92px" height="92px" viewBox="0 0 92 92" enable-background="new 0 0 92 92" xml:space="preserve">
<path fill="white" id="XMLID_698_" d="M33,13v66c0,2.8-2.2,5-5,5s-5-2.2-5-5V13c0-2.8,2.2-5,5-5S33,10.2,33,13z M64,8c-2.8,0-5,2.2-5,5v66
	c0,2.8,2.2,5,5,5s5-2.2,5-5V13C69,10.2,66.8,8,64,8z"/>
</svg>
