<svg xmlns="http://www.w3.org/2000/svg" width="18" height="18" viewBox="0 0 18 18">
    <path fill="#cfcfcf" d="M2 16h10v-2H2v2zM12 6H2v2h10V6zM2 2v2h14V2H2zm0 10h14v-2H2v2z"/>
    <path fill="none" d="M0 0h18v18H0z"/>
</svg>
